<svg
  width="7"
  height="10"
  viewBox="0 0 7 10"
  fill="none"
  xmlns="http://www.w3.org/2000/svg"
>
<path
    d="M1.73999 8.53L5.25999 5L1.73999 1.47"
    stroke="#000"
    stroke-width="1.5"
    stroke-linecap="round"
    stroke-linejoin="round"
  />
</svg>
