<svg width="25" height="25" viewBox="0 0 25 25" fill="none" xmlns="http://www.w3.org/2000/svg">
<path fill-rule="evenodd" clip-rule="evenodd" d="M15.6669 4.22013C16.719 4.63888 17.0409 6.09721 17.4711 6.56596C17.9013 7.03471 18.5169 7.19409 18.8575 7.19409C20.6679 7.19409 22.1356 8.6618 22.1356 10.4712V16.5076C22.1356 18.9347 20.1669 20.9035 17.7398 20.9035H7.26064C4.83252 20.9035 2.86481 18.9347 2.86481 16.5076V10.4712C2.86481 8.6618 4.33252 7.19409 6.14293 7.19409C6.48252 7.19409 7.09814 7.03471 7.52939 6.56596C7.9596 6.09721 8.28043 4.63888 9.33252 4.22013C10.3856 3.80138 14.6148 3.80138 15.6669 4.22013Z" stroke="white" stroke-width="1.5" stroke-linecap="round" stroke-linejoin="round"/>
<path d="M18.2245 9.89583H18.2339" stroke="white" stroke-width="2" stroke-linecap="round" stroke-linejoin="round"/>
<path fill-rule="evenodd" clip-rule="evenodd" d="M15.8114 13.675C15.8114 11.8459 14.3291 10.3636 12.4999 10.3636C10.6708 10.3636 9.18848 11.8459 9.18848 13.675C9.18848 15.5042 10.6708 16.9865 12.4999 16.9865C14.3291 16.9865 15.8114 15.5042 15.8114 13.675Z" stroke="white" stroke-width="1.5" stroke-linecap="round" stroke-linejoin="round"/>
</svg>
