<svg width="24" height="24" viewBox="0 0 24 24" fill="none" xmlns="http://www.w3.org/2000/svg">
<path d="M5 15.5L12 8.5L19 15.5" stroke="#04021D" stroke-width="1.5" stroke-linecap="round" stroke-linejoin="round"/>
</svg>
