<svg width="51" height="50" viewBox="0 0 51 50" fill="none" xmlns="http://www.w3.org/2000/svg">
<circle cx="25.75" cy="25" r="25" fill="#CFFFE1"/>
<path d="M22.4286 12V38L15 30.5714" stroke="#4ADE80" stroke-width="3" stroke-linecap="round" stroke-linejoin="round"/>
<path d="M29.8572 38V12L37.2858 19.4286" stroke="#22C55E" stroke-width="3" stroke-linecap="round" stroke-linejoin="round"/>
</svg>
