<svg width="11" height="10" viewBox="0 0 11 10" fill="none" xmlns="http://www.w3.org/2000/svg">
<path fill-rule="evenodd" clip-rule="evenodd" d="M1.23076 0H9.10258C9.69048 0 10.1667 0.490526 10.1667 1.09613V1.86188C10.1667 2.15566 10.0519 2.43778 9.84801 2.64354L6.5955 5.93351C6.53938 5.99078 6.46319 6.0226 6.38443 6.02207L3.66113 6.01359C3.57825 6.01359 3.49949 5.97806 3.44286 5.91601L0.453927 2.62869C0.269113 2.42559 0.166668 2.15725 0.166668 1.87885V1.09666C0.166668 0.491057 0.642858 0 1.23076 0ZM3.80672 6.91207L6.234 6.9195C6.38536 6.92003 6.50788 7.04677 6.50788 7.20214V8.56766C6.50788 8.72357 6.41933 8.86463 6.28137 8.92986L4.07802 9.96447C4.02654 9.98833 3.97197 10 3.9174 10C3.84482 10 3.77223 9.97879 3.70891 9.93689C3.59823 9.86371 3.5313 9.7375 3.5313 9.60228V7.19472C3.5313 7.03828 3.65485 6.91154 3.80672 6.91207Z" fill="#434F65"/>
</svg>
