<svg width="16" height="18" viewBox="0 0 16 18" fill="none" xmlns="http://www.w3.org/2000/svg">
<path d="M7.11652 17.875C6.71652 17.875 6.32486 17.775 5.95819 17.575C5.22486 17.1667 4.78319 16.425 4.78319 15.5917V11.175C4.78319 10.7583 4.50819 10.1333 4.24986 9.81668L1.13319 6.51668C0.608191 5.99168 0.208191 5.09168 0.208191 4.41668V2.50001C0.208191 1.16668 1.21652 0.125014 2.49986 0.125014H13.4999C14.7665 0.125014 15.7915 1.15001 15.7915 2.41668V4.25001C15.7915 5.12501 15.2665 6.11668 14.7749 6.60835L11.1665 9.80001C10.8165 10.0917 10.5415 10.7333 10.5415 11.25V14.8333C10.5415 15.575 10.0749 16.4333 9.49152 16.7833L8.34153 17.525C7.96652 17.7583 7.54152 17.875 7.11652 17.875ZM2.49986 1.37501C1.91652 1.37501 1.45819 1.86668 1.45819 2.50001V4.41668C1.45819 4.72501 1.70819 5.32501 2.02486 5.64168L5.19986 8.98335C5.62486 9.50835 6.04152 10.3833 6.04152 11.1667V15.5833C6.04152 16.125 6.41652 16.3917 6.57486 16.475C6.92486 16.6667 7.34986 16.6667 7.67486 16.4667L8.83319 15.725C9.06653 15.5833 9.29986 15.1333 9.29986 14.8333V11.25C9.29986 10.3583 9.73319 9.37501 10.3582 8.85001L13.9249 5.69168C14.2082 5.40835 14.5499 4.73335 14.5499 4.24168V2.41668C14.5499 1.84168 14.0832 1.37501 13.5082 1.37501H2.49986Z" fill="#1381B6"/>
<path d="M3.00026 7.95831C2.8836 7.95831 2.77526 7.92498 2.66693 7.86665C2.37526 7.68331 2.2836 7.29165 2.46693 6.99998L6.57526 0.416647C6.7586 0.12498 7.14193 0.0333138 7.4336 0.216647C7.72526 0.39998 7.81693 0.783314 7.6336 1.07498L3.52526 7.65831C3.4086 7.84998 3.2086 7.95831 3.00026 7.95831Z" fill="#1381B6"/>
</svg>
