<svg width="51" height="50" viewBox="0 0 51 50" fill="none" xmlns="http://www.w3.org/2000/svg">
<circle cx="25.25" cy="25" r="25" fill="#CFFFE1"/>
<path fill-rule="evenodd" clip-rule="evenodd" d="M22.2226 27.9083L24.1483 26.1812H22.0043V23.799H23.0167L21.1308 22.0917L19.3243 23.7791H20.2573V26.6378C20.2573 27.5311 20.4161 27.9281 21.1903 27.9281L22.2425 27.9083H22.2226Z" fill="#15803D"/>
<path fill-rule="evenodd" clip-rule="evenodd" d="M28.059 22.0917L26.1334 23.8188H28.2773V26.201H27.2649L29.1508 27.9083L30.9573 26.2209H30.0243V23.3622C30.0243 22.4689 29.8655 22.0719 29.0913 22.0719L28.0391 22.0917H28.059Z" fill="#15803D"/>
<path fill-rule="evenodd" clip-rule="evenodd" d="M28.0591 27.9281L26.3319 26.0025V28.1465H23.9497V27.1341L22.2425 29.02L23.9299 30.8265V29.8934H26.7885C27.6819 29.8934 28.0789 29.7346 28.0789 28.9604L28.0591 27.9083V27.9281Z" fill="#15803D"/>
<path fill-rule="evenodd" clip-rule="evenodd" d="M22.2424 22.0917L23.9695 24.0173V21.8733H26.3518V22.8858L28.059 20.9999L26.3716 19.1934V20.1264H23.513C22.6196 20.1264 22.2226 20.2852 22.2226 21.0594L22.2424 22.1116V22.0917Z" fill="#15803D"/>
<path fill-rule="evenodd" clip-rule="evenodd" d="M14.5202 19.6698C14.282 20.0668 14.0636 20.0668 13.8849 21.7145C13.7063 23.3821 14.7584 25.129 14.7584 25.129C14.7584 25.129 14.6591 24.335 15.1554 23.66C15.6517 23.0049 16.6642 22.0123 17.1406 21.3572C17.6171 20.7021 17.7362 19.8485 17.7362 19.8485C17.2994 20.047 16.823 20.1463 16.3068 20.1463C15.6517 20.1463 15.0562 19.9676 14.5202 19.65V19.6698Z" fill="#1E3A8A"/>
<path fill-rule="evenodd" clip-rule="evenodd" d="M18.7485 16.7516C18.7485 18.1015 17.6567 19.1934 16.3068 19.1934C14.9568 19.1934 13.865 18.1015 13.865 16.7516C13.865 15.4017 14.9568 14.3098 16.3068 14.3098C17.6567 14.3098 18.7485 15.4017 18.7485 16.7516Z" fill="#1E3A8A"/>
<path fill-rule="evenodd" clip-rule="evenodd" d="M19.086 14.7069C19.086 14.7069 20.9719 13.357 22.8578 13.079C24.7438 12.821 27.4436 13.2775 27.4436 13.2775C27.4436 13.2775 26.1334 13.3768 25.3195 13.8532C24.5055 14.3297 23.8703 15.0642 22.8975 15.9178C21.9447 16.7913 21.2499 17.3472 20.5749 17.6648C20.1382 17.8633 19.761 17.9229 19.5426 17.9229C19.6816 17.5655 19.7411 17.1685 19.7411 16.7516C19.7411 15.9774 19.483 15.2627 19.0662 14.687L19.086 14.7069Z" fill="#1E3A8A"/>
<path fill-rule="evenodd" clip-rule="evenodd" d="M19.9198 35.7299C20.3168 35.9681 20.3168 36.1865 21.9645 36.3651C23.632 36.5438 25.379 35.4916 25.379 35.4916C25.379 35.4916 24.5849 35.5909 23.91 35.0946C23.2548 34.5983 22.2623 33.5859 21.6072 33.1094C20.952 32.633 20.0984 32.5139 20.0984 32.5139C20.2969 32.9506 20.3962 33.4271 20.3962 33.9432C20.3962 34.5983 20.2175 35.1939 19.8999 35.7299H19.9198Z" fill="#15803D"/>
<path fill-rule="evenodd" clip-rule="evenodd" d="M17.0214 31.5213C18.3713 31.5213 19.4632 32.6131 19.4632 33.9631C19.4632 35.313 18.3713 36.4048 17.0214 36.4048C15.6715 36.4048 14.5797 35.313 14.5797 33.9631C14.5797 32.6131 15.6715 31.5213 17.0214 31.5213Z" fill="#15803D"/>
<path fill-rule="evenodd" clip-rule="evenodd" d="M14.9569 31.1838C14.9569 31.1838 13.607 29.2979 13.329 27.412C13.071 25.5261 13.5275 22.8262 13.5275 22.8262C13.5275 22.8262 13.6268 24.1364 14.1032 24.9504C14.5797 25.7643 15.3142 26.3995 16.1678 27.3723C17.0413 28.3252 17.5972 29.02 17.9148 29.6949C18.1133 30.1317 18.1729 30.5089 18.1729 30.7272C17.8155 30.5883 17.4185 30.5287 17.0016 30.5287C16.2274 30.5287 15.5127 30.7868 14.937 31.2037L14.9569 31.1838Z" fill="#15803D"/>
<path fill-rule="evenodd" clip-rule="evenodd" d="M35.7615 30.3302C35.9997 29.9332 36.2181 29.9332 36.3968 28.2855C36.5754 26.6179 35.5233 24.871 35.5233 24.871C35.5233 24.871 35.6226 25.665 35.1263 26.34C34.63 26.9951 33.6175 27.9877 33.1411 28.6428C32.6646 29.2979 32.5455 30.1515 32.5455 30.1515C32.9823 29.953 33.4587 29.8538 33.9749 29.8538C34.63 29.8538 35.2255 30.0324 35.7615 30.35V30.3302Z" fill="#1E3A8A"/>
<path fill-rule="evenodd" clip-rule="evenodd" d="M31.5529 33.2484C31.5529 31.8985 32.6447 30.8066 33.9946 30.8066C35.3445 30.8066 36.4364 31.8985 36.4364 33.2484C36.4364 34.5983 35.3445 35.6902 33.9946 35.6902C32.6447 35.6902 31.5529 34.5983 31.5529 33.2484Z" fill="#1E3A8A"/>
<path fill-rule="evenodd" clip-rule="evenodd" d="M31.2155 35.2931C31.2155 35.2931 29.3296 36.643 27.4437 36.921C25.5577 37.179 22.8579 36.7225 22.8579 36.7225C22.8579 36.7225 24.1681 36.6232 24.982 36.1468C25.796 35.6703 26.4312 34.9358 27.404 34.0822C28.3568 33.2087 29.0517 32.6528 29.7266 32.3352C30.1633 32.1367 30.5405 32.0771 30.7589 32.0771C30.6199 32.4345 30.5604 32.8315 30.5604 33.2484C30.5604 34.0226 30.8185 34.7373 31.2353 35.313L31.2155 35.2931Z" fill="#1E3A8A"/>
<path fill-rule="evenodd" clip-rule="evenodd" d="M30.3618 14.2702C29.9648 14.0319 29.9648 13.8136 28.3171 13.6349C26.6495 13.4562 24.9026 14.5084 24.9026 14.5084C24.9026 14.5084 25.6967 14.4091 26.3716 14.9054C27.0267 15.4017 28.0193 16.4141 28.6744 16.8906C29.3295 17.367 30.1831 17.4861 30.1831 17.4861C29.9846 17.0494 29.8854 16.573 29.8854 16.0568C29.8854 15.4017 30.064 14.8062 30.3817 14.2702H30.3618Z" fill="#15803D"/>
<path fill-rule="evenodd" clip-rule="evenodd" d="M33.28 18.4787C31.9301 18.4787 30.8383 17.3869 30.8383 16.0369C30.8383 14.687 31.9301 13.5952 33.28 13.5952C34.6299 13.5952 35.7218 14.687 35.7218 16.0369C35.7218 17.3869 34.6299 18.4787 33.28 18.4787Z" fill="#15803D"/>
<path fill-rule="evenodd" clip-rule="evenodd" d="M35.3247 18.8162C35.3247 18.8162 36.6747 20.7021 36.9526 22.588C37.2107 24.4739 36.7541 27.1738 36.7541 27.1738C36.7541 27.1738 36.6548 25.8635 36.1784 25.0496C35.7019 24.2357 34.9674 23.6004 34.1138 22.6277C33.2403 21.6748 32.6845 20.98 32.3668 20.3051C32.1683 19.8683 32.1088 19.4911 32.1088 19.2728C32.4661 19.4117 32.8631 19.4713 33.28 19.4713C34.0542 19.4713 34.7689 19.2132 35.3446 18.7963L35.3247 18.8162Z" fill="#15803D"/>
</svg>
