<svg
  width="25"
  height="24"
  viewBox="0 0 25 24"
  fill="#3A76F0"
  xmlns="http://www.w3.org/2000/svg"
>
<path
    d="M16.5832 1.275C17.2302 1.49681 17.8189 1.8615 18.3057 2.342L19.8237 3.86183C20.3047 4.34793 20.6698 4.93641 20.8916 5.58333H16.5832V1.275ZM21.1666 7.41667V18.4167C21.1651 19.6318 20.6818 20.7967 19.8225 21.656C18.9633 22.5152 17.7984 22.9985 16.5832 23H9.24991C8.03478 22.9985 6.86984 22.5152 6.01061 21.656C5.15139 20.7967 4.66804 19.6318 4.66658 18.4167V5.58333C4.66804 4.3682 5.15139 3.20326 6.01061 2.34403C6.86984 1.48481 8.03478 1.00146 9.24991 1L14.7499 1V5.58333C14.7499 6.06956 14.9431 6.53588 15.2869 6.8797C15.6307 7.22351 16.097 7.41667 16.5832 7.41667H21.1666ZM17.3239 16.9619C17.2532 16.8641 17.1638 16.7811 17.061 16.7179C16.9581 16.6547 16.8438 16.6124 16.7245 16.5935C16.6053 16.5746 16.4835 16.5794 16.3661 16.6077C16.2487 16.636 16.1381 16.6872 16.0406 16.7584C15.4247 17.1871 14.7053 17.4432 13.957 17.5C13.6638 17.492 13.3831 17.3799 13.165 17.1838C12.6866 16.8041 12.0963 16.5931 11.4857 16.5833C10.4688 16.6789 9.50022 17.0624 8.6935 17.6888C8.59338 17.7602 8.50864 17.851 8.44433 17.9558C8.38001 18.0606 8.33744 18.1772 8.31914 18.2988C8.30084 18.4204 8.30719 18.5444 8.3378 18.6635C8.36842 18.7826 8.42268 18.8943 8.49736 18.992C8.57203 19.0897 8.6656 19.1713 8.77248 19.2321C8.87936 19.2929 8.99738 19.3315 9.11951 19.3458C9.24164 19.36 9.36538 19.3495 9.48337 19.3149C9.60137 19.2804 9.7112 19.2224 9.80633 19.1445C10.2946 18.7621 10.8728 18.5115 11.4857 18.4167C11.7112 18.4167 11.8257 18.4882 12.1273 18.6917C12.6497 19.1042 13.2951 19.3301 13.9607 19.3333C15.0999 19.2813 16.1999 18.9015 17.1287 18.2397C17.3234 18.0958 17.4533 17.8805 17.4899 17.6411C17.5265 17.4017 17.4668 17.1575 17.3239 16.9619ZM17.4999 13.8333C17.4999 13.5902 17.4033 13.3571 17.2314 13.1852C17.0595 13.0132 16.8264 12.9167 16.5832 12.9167H9.24991C9.0068 12.9167 8.77364 13.0132 8.60173 13.1852C8.42982 13.3571 8.33325 13.5902 8.33325 13.8333C8.33325 14.0764 8.42982 14.3096 8.60173 14.4815C8.77364 14.6534 9.0068 14.75 9.24991 14.75H16.5832C16.8264 14.75 17.0595 14.6534 17.2314 14.4815C17.4033 14.3096 17.4999 14.0764 17.4999 13.8333ZM17.4999 10.1667C17.4999 9.92355 17.4033 9.69039 17.2314 9.51849C17.0595 9.34658 16.8264 9.25 16.5832 9.25H9.24991C9.0068 9.25 8.77364 9.34658 8.60173 9.51849C8.42982 9.69039 8.33325 9.92355 8.33325 10.1667C8.33325 10.4098 8.42982 10.6429 8.60173 10.8148C8.77364 10.9868 9.0068 11.0833 9.24991 11.0833H16.5832C16.8264 11.0833 17.0595 10.9868 17.2314 10.8148C17.4033 10.6429 17.4999 10.4098 17.4999 10.1667Z"
    fill="#3A76F0"
  />
</svg>
