<svg width="41" height="40" viewBox="0 0 41 40" fill="none" xmlns="http://www.w3.org/2000/svg">
<g clip-path="url(#clip0_251_12495)">
<mask id="mask0_251_12495" style="mask-type:alpha" maskUnits="userSpaceOnUse" x="0" y="0" width="41" height="40">
<path d="M0.100006 0H40.1V40H0.100006V0Z" fill="white"/>
</mask>
<g mask="url(#mask0_251_12495)">
</g>
<mask id="mask1_251_12495" style="mask-type:alpha" maskUnits="userSpaceOnUse" x="3" y="-2" width="39" height="39">
<path fill-rule="evenodd" clip-rule="evenodd" d="M40.1 35.2269C37.5367 38.3087 28.6503 36.2348 24.7794 36.5791H24.7675C24.5808 36.5998 24.394 36.6123 24.2072 36.6206C24.1913 36.6247 24.1754 36.6247 24.1595 36.6247C24.1436 36.6413 24.1078 36.6413 24.0919 36.6413C23.9131 36.6496 23.7343 36.6579 23.5554 36.662C21.7432 36.7035 19.8952 36.4671 18.0908 35.9855C18.071 35.9818 18.0472 35.9735 18.0273 35.9693C17.8087 35.9113 17.5901 35.8491 17.3716 35.7782C17.1688 35.7205 16.9622 35.6541 16.7595 35.5836C16.7357 35.5753 16.7078 35.567 16.6761 35.5588C16.378 35.455 16.0839 35.343 15.7938 35.2269C15.5553 35.1315 15.3208 35.0361 15.0863 34.9283C15.0427 34.9117 14.9989 34.8909 14.9553 34.8702C13.4649 34.2148 12.0382 33.377 10.7307 32.3649C10.6949 32.3359 10.6552 32.3069 10.6193 32.2737C10.5558 32.2281 10.4962 32.1824 10.4326 32.1285C8.42959 30.5275 6.71273 28.5196 5.47278 26.1516C3.45733 22.3189 3.07707 18.797 3.71891 15.8333C4.8768 10.4869 2.97217 3.59219 7.18334 3.33334C7.32641 3.32504 17.8599 -1.5146 17.999 -1.5146H18.3766C24.1868 -1.82153 30.5218 1.52571 34.941 6.08409C34.9967 6.13801 35.0483 6.19194 35.1 6.25C35.3186 6.47398 35.5293 6.70625 35.7358 6.93853C40.4652 12.202 43.8676 30.6893 40.1 35.2269V35.2269Z" fill="white"/>
</mask>
<g mask="url(#mask1_251_12495)">
<path fill-rule="evenodd" clip-rule="evenodd" d="M34.8422 31.5354C32.2788 34.6172 28.6503 36.2348 24.7794 36.5791H24.7675C24.5808 36.5998 24.394 36.6122 24.2072 36.6205C24.1913 36.6247 24.1754 36.6247 24.1595 36.6247C24.1436 36.6412 24.1078 36.6412 24.0919 36.6412C23.9131 36.6496 23.7343 36.6578 23.5554 36.662C21.7432 36.7035 19.8952 36.4671 18.0908 35.9855C18.071 35.9817 18.0472 35.9735 18.0273 35.9693C17.8087 35.9112 17.5901 35.8491 17.3716 35.7781C17.1688 35.7205 16.9622 35.6541 16.7595 35.5836C16.7357 35.5753 16.7078 35.567 16.6761 35.5587C16.378 35.455 16.0839 35.343 15.7938 35.2269C15.5553 35.1315 15.3208 35.0361 15.0863 34.9282C15.0427 34.9117 14.9989 34.8909 14.9553 34.8702C13.4649 34.2148 12.0382 33.377 10.7307 32.3649C10.6949 32.3359 10.6552 32.3068 10.6193 32.2737C10.5558 32.2281 10.4962 32.1824 10.4326 32.1285C8.42959 30.5275 6.71273 28.5196 5.47278 26.1516C-0.178534 15.4047 7.0267 7.10096 13.5722 6.69863C13.7153 6.69033 13.8543 6.68618 13.9935 6.68618H14.371C20.1813 6.37924 26.5162 9.72649 30.9355 14.2848C30.9912 14.3388 31.0428 14.3927 31.0945 14.4507C31.3131 14.6747 31.5237 14.907 31.7303 15.1393C36.4597 20.4028 38.6097 26.9977 34.8422 31.5354V31.5354Z" fill="#FFD066"/>
<path d="M20.5167 34.1666C27.6504 34.1666 33.4333 33.4205 33.4333 32.5C33.4333 31.5795 27.6504 30.8333 20.5167 30.8333C13.383 30.8333 7.60001 31.5795 7.60001 32.5C7.60001 33.4205 13.383 34.1666 20.5167 34.1666Z" fill="#FFD066"/>
<path d="M25.0353 8.33331C27.638 8.33331 29.9966 9.86606 31.0537 12.2445L34.5006 20.0001H35.5033C37.5818 20.0001 39.2667 21.685 39.2667 23.7635V27.055C39.2667 28.2212 38.3213 29.1666 37.155 29.1666L6.37834 29.1666C5.2121 29.1666 4.26668 28.2211 4.26668 27.0549V23.1675C4.26668 21.725 5.23093 20.5077 6.55004 20.1251L6.76079 16.3313C7.01009 11.8441 10.7213 8.33331 15.2155 8.33331H25.0353Z" fill="#1381B6"/>
<path d="M35.8918 29.0324H24.3082C24.2808 28.8032 24.2667 28.5699 24.2667 28.3333C24.2667 25.1116 26.8783 22.5 30.1 22.5C33.3217 22.5 35.9333 25.1116 35.9333 28.3333C35.9333 28.5699 35.9193 28.8032 35.8918 29.0324Z" fill="#115888"/>
<path d="M17.5585 29.0324H5.9748C5.94743 28.8032 5.93334 28.5699 5.93334 28.3333C5.93334 25.1116 8.54501 22.5 11.7667 22.5C14.9883 22.5 17.6 25.1116 17.6 28.3333C17.6 28.5699 17.5859 28.8032 17.5585 29.0324Z" fill="#115888"/>
<path d="M9.55751 16.8011C9.55751 13.6834 12.0849 11.156 15.2027 11.156H24.2158C26.1559 11.156 27.897 12.3471 28.6003 14.1552L30.7268 19.6237H9.55751V16.8011Z" fill="#F0EBFA"/>
<path d="M20.8583 11.156L14.2051 19.6237H9.69476L16.6503 11.156H20.8583Z" fill="white"/>
<path d="M28.7055 14.4262L24.6218 19.6237H20.1114L26.5553 11.779C27.4688 12.3027 28.2013 13.1297 28.6002 14.1552L28.7055 14.4262Z" fill="white"/>
<path d="M18.4955 9.27414H21.3181V20.5645H18.4955V9.27414Z" fill="#1381B6"/>
<path d="M11.6408 33.3333C8.96842 33.3333 6.80205 31.1669 6.80205 28.4946C6.80205 25.8222 8.96842 23.6559 11.6408 23.6559C14.3131 23.6559 16.4795 25.8222 16.4795 28.4946C16.4795 31.1669 14.3131 33.3333 11.6408 33.3333Z" fill="#3D3450"/>
<path d="M11.7667 30.8333C10.386 30.8333 9.26668 29.714 9.26668 28.3333C9.26668 26.9526 10.386 25.8333 11.7667 25.8333C13.1474 25.8333 14.2667 26.9526 14.2667 28.3333C14.2667 29.714 13.1474 30.8333 11.7667 30.8333Z" fill="#D5CFE3"/>
<path d="M30.1892 33.3333C27.5168 33.3333 25.3505 31.1669 25.3505 28.4946C25.3505 25.8222 27.5168 23.6559 30.1892 23.6559C32.8615 23.6559 35.0279 25.8222 35.0279 28.4946C35.0279 31.1669 32.8615 33.3333 30.1892 33.3333Z" fill="#3D3450"/>
<path d="M30.1 30.8333C28.7193 30.8333 27.6 29.714 27.6 28.3333C27.6 26.9526 28.7193 25.8333 30.1 25.8333C31.4807 25.8333 32.6 26.9526 32.6 28.3333C32.6 29.714 31.4807 30.8333 30.1 30.8333Z" fill="#D5CFE3"/>
</g>
</g>
<defs>
<clipPath id="clip0_251_12495">
<rect width="40" height="40" fill="white" transform="translate(0.100006)"/>
</clipPath>
</defs>
</svg>
