<svg width="51" height="50" viewBox="0 0 51 50" fill="none" xmlns="http://www.w3.org/2000/svg">
<circle cx="25.75" cy="25" r="25" fill="#F1F5FF"/>
<rect x="11.2582" y="15.5082" width="28.9835" height="18.9835" rx="3.04946" fill="white" stroke="#3A76F0" stroke-width="1.01649"/>
<rect x="11.75" y="19.5" width="28" height="5" fill="#3A76F0"/>
<rect x="14.25" y="26" width="15" height="2.5" rx="1.25" fill="#3A76F0"/>
<rect x="14.75" y="29.5" width="2.5" height="2.5" rx="1.25" fill="#3A76F0"/>
<rect x="18.7495" y="29.5" width="2.5" height="2.5" rx="1.25" fill="#3A76F0"/>
<rect x="22.75" y="29.5" width="2.5" height="2.5" rx="1.25" fill="#3A76F0"/>
<circle cx="35.7502" cy="32" r="5.26237" fill="#3A76F0" stroke="#F1F5FF" stroke-width="1.52473"/>
<path d="M33.9014 29.5C34.4913 29.5 34.9432 29.6054 35.257 29.8161C35.5708 30.023 35.7278 30.3465 35.7278 30.7867C35.7278 31.0614 35.6635 31.2852 35.5349 31.4583C35.4101 31.6276 35.2286 31.7611 34.9904 31.8589C35.0698 31.9568 35.153 32.0696 35.24 32.1975C35.327 32.3217 35.412 32.4534 35.4952 32.5926C35.5822 32.728 35.6654 32.871 35.7448 33.0215C35.8242 33.1682 35.8979 33.313 35.966 33.456H34.9734C34.9016 33.3281 34.8278 33.1983 34.7522 33.0666C34.6804 32.9349 34.6047 32.807 34.5253 32.6829C34.4497 32.5587 34.3741 32.4421 34.2984 32.333C34.2228 32.2201 34.1472 32.1185 34.0716 32.0282H33.6348V33.456H32.75V29.6016C32.9428 29.564 33.1414 29.5377 33.3456 29.5226C33.5535 29.5076 33.7388 29.5 33.9014 29.5ZM33.9525 30.2506C33.8882 30.2506 33.8296 30.2525 33.7766 30.2562C33.7275 30.26 33.6802 30.2638 33.6348 30.2675V31.3285H33.8844C34.2171 31.3285 34.4554 31.2871 34.5991 31.2043C34.7427 31.1216 34.8146 30.9805 34.8146 30.7811C34.8146 30.5892 34.7409 30.4538 34.5934 30.3747C34.4497 30.292 34.236 30.2506 33.9525 30.2506Z" fill="white"/>
<path d="M38.3879 31.9944C38.3879 31.7348 38.3293 31.5279 38.212 31.3736C38.0948 31.2156 37.9209 31.1366 37.6902 31.1366C37.6146 31.1366 37.5446 31.1404 37.4804 31.1479C37.4161 31.1516 37.3631 31.1573 37.3215 31.1648V32.6829C37.3745 32.7167 37.4425 32.745 37.5257 32.7675C37.6127 32.7901 37.6997 32.8014 37.7866 32.8014C38.1875 32.8014 38.3879 32.5324 38.3879 31.9944ZM39.25 31.9718C39.25 32.2013 39.2216 32.4101 39.1649 32.5982C39.1082 32.7863 39.025 32.9481 38.9154 33.0836C38.8057 33.219 38.6696 33.3243 38.507 33.3996C38.3444 33.4748 38.1572 33.5124 37.9455 33.5124C37.8282 33.5124 37.7186 33.5012 37.6165 33.4786C37.5144 33.456 37.4161 33.424 37.3215 33.3826V34.5H36.4764V30.5892C36.552 30.5666 36.639 30.5459 36.7373 30.5271C36.8356 30.5045 36.9377 30.4857 37.0436 30.4707C37.1533 30.4556 37.2629 30.4443 37.3726 30.4368C37.486 30.4255 37.5938 30.4199 37.6959 30.4199C37.9417 30.4199 38.161 30.4575 38.3538 30.5328C38.5467 30.6042 38.7093 30.7077 38.8416 30.8431C38.974 30.9748 39.0742 31.1366 39.1422 31.3285C39.2141 31.5203 39.25 31.7348 39.25 31.9718Z" fill="white"/>
</svg>
