<svg width="20" height="21" viewBox="0 0 20 21" fill="none" xmlns="http://www.w3.org/2000/svg">
<path d="M13 17C13.0008 17.7809 12.697 18.5313 12.1532 19.0918C11.6095 19.6523 10.8686 19.9787 10.088 20.0016C9.30747 20.0245 8.54873 19.7422 7.97303 19.2145C7.39733 18.6869 7.05006 17.9556 7.005 17.176L7 17H13ZM10 0C11.8565 0 13.637 0.737498 14.9497 2.05025C16.2625 3.36301 17 5.14348 17 7C17 9.352 15.576 11.424 14 13C13.333 13.667 13 14.333 13 15H7C7 14.333 6.667 13.667 6 13C4.422 11.422 3 9.355 3 7C3 5.14348 3.7375 3.36301 5.05025 2.05025C6.36301 0.737498 8.14348 0 10 0Z" fill="#3A76F0"/>
</svg>
