<svg width="51" height="50" viewBox="0 0 51 50" fill="none" xmlns="http://www.w3.org/2000/svg">
<circle cx="25.75" cy="25" r="25" fill="#F1F5FF"/>
<circle cx="19.1176" cy="18.1176" r="6.11765" fill="#0C57EE"/>
<path d="M26.7646 18.1176C26.7646 14.739 29.5036 12 32.8823 12C36.261 12 38.9999 14.739 38.9999 18.1176C38.9999 21.4963 36.261 24.2353 32.8823 24.2353H26.7646V18.1176Z" fill="#256DFE"/>
<circle cx="32.8824" cy="31.8824" r="6.11765" transform="rotate(-180 32.8824 31.8824)" fill="#0C57EE"/>
<path d="M25.2354 31.8824C25.2354 35.261 22.4964 38 19.1177 38C15.739 38 13.0001 35.261 13.0001 31.8824C13.0001 28.5037 15.739 25.7647 19.1177 25.7647H25.2354V31.8824Z" fill="#256DFE"/>
</svg>
