<svg width="51" height="50" viewBox="0 0 51 50" fill="none" xmlns="http://www.w3.org/2000/svg">
<circle cx="25.75" cy="25" r="25" fill="#F1F5FF"/>
<path d="M33.25 37.5C33.913 37.5 34.5489 37.2366 35.0178 36.7678C35.4866 36.2989 35.75 35.663 35.75 35V15C35.75 13.6125 34.625 12.5 33.25 12.5H25.75V21.25L22.625 19.375L19.5 21.25V12.5H18.25C17.587 12.5 16.9511 12.7634 16.4822 13.2322C16.0134 13.7011 15.75 14.337 15.75 15V35C15.75 35.663 16.0134 36.2989 16.4822 36.7678C16.9511 37.2366 17.587 37.5 18.25 37.5H33.25Z" fill="url(#paint0_linear_93_7619)"/>
<path d="M28.27 33.0714L27.394 31.4814H27.148V33.0714H26.122V28.8594H27.844C28.176 28.8594 28.458 28.9174 28.69 29.0334C28.926 29.1494 29.102 29.3094 29.218 29.5134C29.334 29.7134 29.392 29.9374 29.392 30.1854C29.392 30.4654 29.312 30.7154 29.152 30.9354C28.996 31.1554 28.764 31.3114 28.456 31.4034L29.428 33.0714H28.27ZM27.148 30.7554H27.784C27.972 30.7554 28.112 30.7094 28.204 30.6174C28.3 30.5254 28.348 30.3954 28.348 30.2274C28.348 30.0674 28.3 29.9414 28.204 29.8494C28.112 29.7574 27.972 29.7114 27.784 29.7114H27.148V30.7554ZM33.2461 30.2154C33.2461 30.4594 33.1901 30.6834 33.0781 30.8874C32.9661 31.0874 32.7941 31.2494 32.5621 31.3734C32.3301 31.4974 32.0421 31.5594 31.6981 31.5594H31.0621V33.0714H30.0361V28.8594H31.6981C32.0341 28.8594 32.3181 28.9174 32.5501 29.0334C32.7821 29.1494 32.9561 29.3094 33.0721 29.5134C33.1881 29.7174 33.2461 29.9514 33.2461 30.2154ZM31.6201 30.7434C31.8161 30.7434 31.9621 30.6974 32.0581 30.6054C32.1541 30.5134 32.2021 30.3834 32.2021 30.2154C32.2021 30.0474 32.1541 29.9174 32.0581 29.8254C31.9621 29.7334 31.8161 29.6874 31.6201 29.6874H31.0621V30.7434H31.6201Z" fill="white"/>
<path d="M19.3215 12.4982L25.7501 12.4982V21.3582L22.5358 19.6428L19.3215 21.3582V12.4982Z" fill="#1E3A8A"/>
<defs>
<linearGradient id="paint0_linear_93_7619" x1="35.75" y1="12.5" x2="11.3598" y2="32.0122" gradientUnits="userSpaceOnUse">
<stop stop-color="#3B82F6"/>
<stop offset="1" stop-color="#60A5FA"/>
</linearGradient>
</defs>
</svg>
