<svg width="51" height="50" viewBox="0 0 51 50" fill="none" xmlns="http://www.w3.org/2000/svg">
<circle cx="25.25" cy="25" r="25" fill="#EAFFFF"/>
<rect x="17.25" y="33" width="16" height="6" fill="#00AEB5"/>
<rect x="16.25" y="10" width="18" height="30" rx="3" stroke="#00AEB5" stroke-width="2"/>
<circle cx="25.25" cy="37" r="2" fill="white"/>
<path d="M17.25 13C17.25 11.8954 18.1454 11 19.25 11H31.25C32.3546 11 33.25 11.8954 33.25 13V33C33.25 33.5523 32.8023 34 32.25 34H18.25C17.6977 34 17.25 33.5523 17.25 33V13Z" fill="#37DEE6"/>
<path d="M29.404 23.4991V22.1024C29.404 21.4589 29.2577 20.8496 28.9965 20.306C28.3265 18.9111 26.9004 17.9482 25.2497 17.9482C24.2114 17.9482 23.2622 18.329 22.5339 18.9586M29.404 23.4991L28.0585 22.1476M29.404 23.4991L30.75 22.1476M27.9444 25.2642C27.2189 25.8831 26.2779 26.2567 25.2497 26.2567C23.5987 26.2567 22.1728 25.2936 21.5029 23.8987C21.2418 23.3551 21.0955 22.7458 21.0955 22.1024L21.0955 20.7058M21.0955 20.7058L19.75 22.0573M21.0955 20.7058L22.4415 22.0573" stroke="white" stroke-width="1.5" stroke-linecap="round" stroke-linejoin="round"/>
</svg>
