<svg width="20" height="20" viewBox="0 0 20 20" fill="none" xmlns="http://www.w3.org/2000/svg">
<path d="M10 0C15.523 0 20 4.477 20 10C20 15.523 15.523 20 10 20C4.477 20 0 15.523 0 10C0 4.477 4.477 0 10 0ZM10.216 5.053C10.1583 5.02364 10.0951 5.00633 10.0305 5.00211C9.96586 4.99789 9.90103 5.00686 9.83996 5.02846C9.77889 5.05006 9.72285 5.08386 9.67524 5.12779C9.62763 5.17171 9.58944 5.22486 9.563 5.284L8.282 8L5.417 8.436C5.30997 8.45245 5.21164 8.50461 5.138 8.584C5.04751 8.68284 4.99816 8.81249 5.00002 8.94648C5.00187 9.08048 5.0548 9.20871 5.148 9.305L7.22 11.419L6.73 14.404C6.71222 14.5142 6.72972 14.6273 6.78 14.727C6.905 14.977 7.2 15.072 7.438 14.941L10 13.532L12.562 14.942C12.657 14.994 12.766 15.012 12.872 14.992C13.0018 14.9652 13.116 14.8886 13.1902 14.7788C13.2643 14.6689 13.2926 14.5344 13.269 14.404L12.779 11.419L14.853 9.305C14.9304 9.2254 14.9802 9.12304 14.995 9.013C15.0154 8.88206 14.9836 8.74835 14.9066 8.64051C14.8296 8.53267 14.7135 8.45926 14.583 8.436L11.718 8L10.437 5.284C10.3907 5.18485 10.313 5.10368 10.216 5.053Z" fill="#3A76F0"/>
</svg>
