<svg width="29" height="28" viewBox="0 0 29 28" fill="none" xmlns="http://www.w3.org/2000/svg">
<path d="M20.1 10.5H15.375V17.7917C15.375 18.27 14.9783 18.6667 14.5 18.6667C14.0217 18.6667 13.625 18.27 13.625 17.7917V10.5H8.89999C5.16666 10.5 2.83333 12.8333 2.83333 16.5667V19.5883C2.83333 23.3333 5.16666 25.6667 8.89999 25.6667H20.0883C23.8217 25.6667 26.155 23.3333 26.155 19.6V16.5667C26.1667 12.8333 23.8333 10.5 20.1 10.5Z" fill="white"/>
<path d="M15.375 5.31999L17.79 7.73499C17.965 7.90999 18.1867 7.99166 18.4083 7.99166C18.63 7.99166 18.8517 7.90999 19.0267 7.73499C19.365 7.39666 19.365 6.83666 19.0267 6.49833L15.1183 2.58999C14.78 2.25166 14.22 2.25166 13.8817 2.58999L9.97334 6.49833C9.63501 6.83666 9.63501 7.39666 9.97334 7.73499C10.3117 8.07333 10.8717 8.07333 11.21 7.73499L13.625 5.31999V10.5H15.375V5.31999Z" fill="white"/>
</svg>
