<svg width="38" height="39" viewBox="0 0 38 39" fill="none" xmlns="http://www.w3.org/2000/svg">
<path d="M0 6.4375C0 3.15831 2.65831 0.5 5.9375 0.5H32.0625C35.3417 0.5 38 3.15831 38 6.4375V32.5625C38 35.8417 35.3417 38.5 32.0625 38.5H5.9375C2.65831 38.5 0 35.8417 0 32.5625V6.4375Z" fill="#3A76F0"/>
<path d="M16.7193 10.2773L16.9325 11.141C16.0921 11.3487 15.2878 11.6817 14.5466 12.1289L14.0904 11.3651C14.9063 10.871 15.7928 10.5042 16.7193 10.2773V10.2773ZM21.2807 10.2773L21.0675 11.141C21.9078 11.3487 22.7122 11.6817 23.4534 12.1289L23.915 11.3651C23.0969 10.8714 22.2087 10.5046 21.2807 10.2773V10.2773ZM10.865 14.5877C10.3714 15.4048 10.0047 16.2921 9.77733 17.2193L10.641 17.4325C10.8487 16.5921 11.1817 15.7878 11.6289 15.0466L10.865 14.5877ZM10.39 19.5C10.3899 19.0681 10.4224 18.6369 10.4872 18.2099L9.60729 18.0749C9.46424 19.0187 9.46424 19.9786 9.60729 20.9224L10.4872 20.7901C10.4225 20.3631 10.39 19.9319 10.39 19.5V19.5ZM23.9096 27.6322L23.4534 26.8711C22.7133 27.3187 21.9098 27.6517 21.0702 27.859L21.2834 28.7227C22.2087 28.4937 23.0941 28.126 23.9096 27.6322ZM27.61 19.5C27.6099 19.9319 27.5774 20.3631 27.5128 20.7901L28.3927 20.9224C28.5357 19.9786 28.5357 19.0187 28.3927 18.0749L27.5128 18.2099C27.5775 18.6369 27.61 19.0681 27.61 19.5V19.5ZM28.2226 21.778L27.359 21.5648C27.1517 22.4062 26.8187 23.2115 26.3711 23.9534L27.1349 24.4123C27.629 23.5945 27.9958 22.7062 28.2226 21.778V21.778ZM20.2901 28.0128C19.4349 28.1424 18.5651 28.1424 17.7098 28.0128L17.5776 28.8927C18.5205 29.0358 19.4795 29.0358 20.4224 28.8927L20.2901 28.0128ZM25.9312 24.6066C25.4181 25.3023 24.803 25.9165 24.1066 26.4285L24.6356 27.1464C25.4027 26.5817 26.0813 25.9058 26.6491 25.141L25.9312 24.6066ZM24.1066 12.5688C24.8031 13.0818 25.4182 13.6969 25.9312 14.3934L26.6491 13.859C26.0833 13.0935 25.4065 12.4167 24.641 11.8509L24.1066 12.5688ZM12.0688 14.3934C12.5818 13.6969 13.1969 13.0818 13.8934 12.5688L13.359 11.8509C12.5935 12.4167 11.9167 13.0935 11.3509 13.859L12.0688 14.3934ZM27.1349 14.5877L26.3711 15.0466C26.8187 15.7866 27.1517 16.5901 27.359 17.4298L28.2226 17.2166C27.9953 16.2903 27.6285 15.4039 27.1349 14.5877V14.5877ZM17.7098 10.9872C18.5651 10.8576 19.4349 10.8576 20.2901 10.9872L20.4224 10.1073C19.4795 9.96423 18.5205 9.96423 17.5776 10.1073L17.7098 10.9872ZM12.525 27.3839L10.6869 27.8104L11.1161 25.9723L10.2497 25.7699L9.82051 27.608C9.79366 27.7219 9.78954 27.84 9.80838 27.9556C9.82723 28.0711 9.86867 28.1819 9.93034 28.2814C9.99201 28.3809 10.0727 28.4673 10.1678 28.5356C10.2629 28.6039 10.3705 28.6528 10.4845 28.6795C10.6178 28.7092 10.756 28.7092 10.8893 28.6795L12.7274 28.2557L12.525 27.3839ZM10.4332 24.9764L11.3023 25.1761L11.5992 23.9022C11.1656 23.1749 10.8427 22.3871 10.641 21.5648L9.77733 21.778C9.9716 22.5652 10.2655 23.3243 10.6518 24.0371L10.4332 24.9764ZM14.5897 26.9035L13.3158 27.2004L13.5182 28.0695L14.4548 27.8509C15.167 28.2384 15.9264 28.5323 16.7139 28.7254L16.9271 27.8617C16.1073 27.6574 15.3224 27.3326 14.5978 26.8981L14.5897 26.9035ZM19 11.7807C14.7355 11.7834 11.2834 15.2409 11.2834 19.5027C11.2857 20.9543 11.6963 22.3759 12.4683 23.6053L11.726 26.7739L14.892 26.0317C18.5007 28.3016 23.2672 27.2193 25.5371 23.6134C27.807 20.0074 26.7274 15.2409 23.1214 12.9683C21.887 12.192 20.4583 11.7803 19 11.7807" fill="white"/>
</svg>
