<svg width="20" height="21" viewBox="0 0 20 21" fill="none" xmlns="http://www.w3.org/2000/svg">
<path d="M14.033 17.3035V5.95538" stroke="#3A76F0" stroke-width="1.5" stroke-linecap="round" stroke-linejoin="round"/>
<path d="M17.431 13.8901L14.0329 17.304L10.6347 13.8901" stroke="#3A76F0" stroke-width="1.5" stroke-linecap="round" stroke-linejoin="round"/>
<path d="M5.75926 3.69409V15.0422" stroke="#3A76F0" stroke-width="1.5" stroke-linecap="round" stroke-linejoin="round"/>
<path d="M2.36121 7.10749L5.75935 3.6936L9.1575 7.10749" stroke="#3A76F0" stroke-width="1.5" stroke-linecap="round" stroke-linejoin="round"/>
</svg>
