<svg width="15" height="15" viewBox="0 0 15 15" fill="none" xmlns="http://www.w3.org/2000/svg">
<g clip-path="url(#clip0_183_35031)">
<path d="M7.5 0C11.6423 0 15 3.35775 15 7.5C15 11.6423 11.6423 15 7.5 15C3.35775 15 0 11.6423 0 7.5C0 3.35775 3.35775 0 7.5 0ZM7.662 3.78975C7.61869 3.76773 7.57136 3.75475 7.52288 3.75158C7.47439 3.74842 7.42577 3.75514 7.37997 3.77135C7.33417 3.78755 7.29213 3.81289 7.25643 3.84584C7.22072 3.87879 7.19208 3.91865 7.17225 3.963L6.2115 6L4.06275 6.327C3.98248 6.33934 3.90873 6.37846 3.8535 6.438C3.78563 6.51213 3.74862 6.60937 3.75001 6.70986C3.75141 6.81036 3.7911 6.90653 3.861 6.97875L5.415 8.56425L5.0475 10.803C5.03417 10.8857 5.04729 10.9705 5.085 11.0452C5.17875 11.2327 5.4 11.304 5.5785 11.2057L7.5 10.149L9.4215 11.2065C9.49275 11.2455 9.5745 11.259 9.654 11.244C9.75135 11.2239 9.83698 11.1665 9.89261 11.0841C9.94824 11.0017 9.96947 10.9008 9.95175 10.803L9.58425 8.56425L11.1398 6.97875C11.1978 6.91905 11.2351 6.84228 11.2463 6.75975C11.2615 6.66154 11.2377 6.56126 11.18 6.48038C11.1222 6.3995 11.0351 6.34444 10.9373 6.327L8.7885 6L7.82775 3.963C7.79299 3.88864 7.73475 3.82776 7.662 3.78975Z" fill="#3A76F0"/>
</g>
<defs>
<clipPath id="clip0_183_35031">
<rect width="15" height="15" fill="white"/>
</clipPath>
</defs>
</svg>
