<svg width="41" height="41" viewBox="0 0 41 41" fill="none" xmlns="http://www.w3.org/2000/svg">
<path d="M20.5 38C30.165 38 38 30.165 38 20.5C38 10.835 30.165 3 20.5 3C10.835 3 3 10.835 3 20.5C3 30.165 10.835 38 20.5 38Z" fill="#00C572" stroke="#D2FFEC" stroke-width="5"/>
<path fill-rule="evenodd" clip-rule="evenodd" d="M27.3081 15.4734C27.6701 15.8 27.8877 16.257 27.913 16.7439C27.9383 17.2309 27.7693 17.7079 27.4431 18.0704L21.3621 25.1584C20.7021 25.8904 19.4551 26.0014 18.6951 25.3754L14.7001 21.8734C14.5079 21.7217 14.3479 21.5331 14.2295 21.3188C14.1111 21.1045 14.0366 20.8687 14.0105 20.6252C13.9844 20.3818 14.0071 20.1355 14.0774 19.901C14.1477 19.6664 14.264 19.4482 14.4197 19.2592C14.5754 19.0702 14.7672 18.9142 14.9839 18.8003C15.2007 18.6863 15.438 18.6168 15.6819 18.5958C15.9259 18.5748 16.1716 18.6026 16.4046 18.6778C16.6377 18.7529 16.8534 18.8738 17.0391 19.0334L19.7181 20.9554L24.7111 15.6074C25.0377 15.2453 25.4947 15.0278 25.9817 15.0025C26.4686 14.9772 26.9457 15.1462 27.3081 15.4724V15.4734Z" fill="white"/>
</svg>
