<svg width="41" height="40" viewBox="0 0 41 40" fill="none" xmlns="http://www.w3.org/2000/svg">
<g clip-path="url(#clip0_251_12564)">
<mask id="mask0_251_12564" style="mask-type:alpha" maskUnits="userSpaceOnUse" x="0" y="0" width="41" height="40">
<path d="M0.300018 0H40.3V40H0.300018V0Z" fill="white"/>
</mask>
<g mask="url(#mask0_251_12564)">
<path fill-rule="evenodd" clip-rule="evenodd" d="M6.70752 9.7L20.8575 3.75L35.3 9.7V28.9287C33.615 35.1925 21.0038 40 21.0038 40C13.6075 37.45 6.70752 29.7288 6.70752 29.7288C6.35252 21.135 6.70752 9.7 6.70752 9.7Z" fill="#C4A8FD"/>
<path fill-rule="evenodd" clip-rule="evenodd" d="M9.18002 11.38L20.8675 6.25L32.8 11.38V27.955C31.4075 33.355 20.99 37.5 20.99 37.5C14.88 35.3013 9.18002 28.6462 9.18002 28.6462C8.88752 21.2375 9.18002 11.38 9.18002 11.38Z" fill="#7F4FE3"/>
<mask id="mask1_251_12564" style="mask-type:alpha" maskUnits="userSpaceOnUse" x="0" y="-8" width="41" height="46">
<path fill-rule="evenodd" clip-rule="evenodd" d="M9.18002 11.38C13.93 4.2625 20.3 -7.5 20.3 -7.5L32.8 11.38L40.4525 33.185C37.9525 36.31 32.22 29.4675 31.7125 30.1775C28.6525 34.4525 20.99 37.5 20.99 37.5C14.88 35.3013 9.18002 28.6462 9.18002 28.6462C-7.19998 45.625 2.17502 21.875 9.18002 11.38Z" fill="white"/>
</mask>
<g mask="url(#mask1_251_12564)">
<path d="M27.7675 7.3875C27.7675 11.2437 24.2375 14.1025 20.38 14.1025C16.5225 14.1025 13.665 10.5725 13.665 6.715C13.665 2.85875 17.1938 0 21.0525 0C24.9088 0 27.7675 3.53 27.7675 7.3875Z" fill="#ECE2FF"/>
<path d="M8.71376 19.4962C11.4263 15.1875 16.1088 12.4362 21.2013 12.4362C26.39 12.4362 31.1675 15.28 33.595 19.8675C35.4675 23.405 37.4175 27.1475 37.995 28.4612C39.87 33.0075 36.745 32.3825 35.0463 30.7312C31.9588 27.73 27.7675 22.4362 27.7675 22.4362L32.895 46.795L25.46 47.4362L20.975 38.075L16.72 47.4362H9.81876L13.665 22.4362C13.665 22.4362 9.62626 26.8112 5.46001 30.7312C3.37501 32.6912 0.250012 31.6125 2.12501 29.14C4.48501 26.0287 6.81876 22.5037 8.71251 19.4962H8.71376Z" fill="#ECE2FF"/>
<path fill-rule="evenodd" clip-rule="evenodd" d="M27.7438 7.92999C24.3038 12.88 16.8313 12.4375 14.0163 9.04374C14.8925 11.885 17.3225 14.1025 20.38 14.1025C24.055 14.1025 27.43 11.5087 27.7425 7.92999H27.7438Z" fill="#DBCAFF"/>
<path d="M19.98 28.1C18.5 26.915 15.785 24.5275 14.88 22.2888C14.6796 21.8519 14.576 21.3769 14.5763 20.8963C14.5763 19.0125 16.1388 17.485 18.0638 17.485C19.2763 17.485 20.345 18.0913 20.97 19.01C21.2931 18.5381 21.7267 18.1524 22.2331 17.8866C22.7394 17.6208 23.3031 17.4829 23.875 17.485C25.8 17.485 27.3625 19.0113 27.3625 20.895V20.905C27.3619 21.3826 27.2587 21.8545 27.06 22.2888C26.1538 24.5275 23.44 26.915 21.96 28.0988C21.6786 28.3227 21.3296 28.4446 20.97 28.4446C20.6104 28.4446 20.2614 28.3227 19.98 28.0988V28.1Z" fill="white"/>
<path d="M20.3125 26.2525C19.395 25.5187 17.7125 24.04 17.1525 22.6525C17.0286 22.3818 16.9647 22.0876 16.965 21.79C16.965 20.6237 17.9325 19.6775 19.125 19.6775C19.8762 19.6775 20.5375 20.0525 20.925 20.6212C21.3125 20.0525 21.9737 19.6775 22.725 19.6775C23.9175 19.6775 24.885 20.6225 24.885 21.79V21.7962C24.885 22.1012 24.8175 22.3912 24.6975 22.6537C24.1362 24.04 22.455 25.5187 21.5375 26.2525C21.3633 26.3908 21.1474 26.4661 20.925 26.4661C20.7026 26.4661 20.4867 26.3908 20.3125 26.2525Z" fill="#FF3B61"/>
</g>
</g>
</g>
<defs>
<clipPath id="clip0_251_12564">
<rect width="40" height="40" fill="white" transform="translate(0.300018)"/>
</clipPath>
</defs>
</svg>
