<svg width="51" height="50" viewBox="0 0 51 50" fill="none" xmlns="http://www.w3.org/2000/svg">
<circle cx="25.25" cy="25" r="25" fill="#FFEFEE"/>
<path fill-rule="evenodd" clip-rule="evenodd" d="M25.2104 9C26.3195 9 26.9713 9.05715 27.3829 9.18289C27.7146 9.27434 28.3549 9.49152 28.7894 9.64012C29.2239 9.80015 29.9557 10.1316 30.3903 10.3945C30.8248 10.6575 31.5909 11.2633 32.094 11.7434C32.5857 12.212 33.2032 12.9093 33.4548 13.2865C33.7063 13.6637 34.0951 14.3267 34.3009 14.7725C34.5067 15.2183 34.804 16.087 34.9641 16.7157C35.1357 17.4016 35.25 18.1903 35.25 18.6932C35.25 19.1619 35.1471 19.882 35.0213 20.3735C34.8955 20.8422 34.6554 21.6081 34.1523 22.8883L20.7165 23.0026L21.4255 24.0314C21.8028 24.5915 22.5918 25.6545 23.175 26.3747C23.7582 27.0948 24.5014 27.9864 25.4162 29.0037L26.9599 27.1748H29.2125C30.4589 27.1748 31.4994 27.2091 31.5337 27.2548C31.5566 27.312 31.225 27.8835 30.779 28.5465C30.3217 29.2095 29.4984 30.364 28.9266 31.1184C28.3663 31.8728 27.3829 33.1188 26.7426 33.8961C26.1023 34.6619 25.5648 35.2906 25.5305 35.302C25.4962 35.302 24.9817 34.7419 24.3756 34.0675C23.7696 33.3931 22.7748 32.2158 22.1573 31.4613C21.5398 30.7069 20.6022 29.5295 20.0876 28.8323C19.5731 28.135 18.7383 26.9348 18.2238 26.1461C17.7092 25.3573 16.9545 24.0542 16.5543 23.2312C16.1427 22.4082 15.6738 21.2537 15.5138 20.6593C15.2508 19.7106 15.2165 19.4362 15.2736 18.4875C15.3079 17.8931 15.4452 16.9901 15.5709 16.4871C15.7081 15.9842 15.9826 15.2069 16.1884 14.7725C16.3942 14.3267 16.783 13.6637 17.0346 13.2865C17.2861 12.9093 17.9036 12.212 18.3953 11.7434C18.8984 11.2633 19.6302 10.6803 20.0419 10.4403C20.4535 10.2002 21.0824 9.88016 21.4369 9.73156C21.8028 9.58297 22.4203 9.37721 22.8091 9.28577C23.2093 9.19432 23.5523 9.09145 23.5752 9.05715C23.5981 9.02286 24.3413 9 25.2104 9ZM25.4962 38.6055C25.6449 38.6055 25.9307 38.6741 26.1251 38.7655C26.331 38.8456 26.6283 39.0627 26.7883 39.2342C27.0285 39.4971 27.0742 39.6457 27.0742 40.2858C27.0742 41.0288 27.0742 41.0403 26.5597 41.4861C26.1137 41.8633 25.9765 41.9319 25.5305 41.9204C25.1989 41.9204 24.8673 41.8175 24.6272 41.6575C24.4099 41.5203 24.1355 41.2003 24.0212 40.9488C23.9068 40.6973 23.8153 40.3887 23.8153 40.263C23.8153 40.1372 23.9182 39.8172 24.044 39.5543C24.2155 39.1885 24.3985 39.0056 24.753 38.8341C25.0274 38.7084 25.359 38.6055 25.4962 38.6055ZM31.0109 16.6643C31.3184 17.4065 31.4766 18.202 31.4766 19.0053H25.359H19.2415C19.2415 18.202 19.3997 17.4065 19.7072 16.6643C20.0146 15.922 20.4652 15.2476 21.0333 14.6796C21.6014 14.1115 22.2757 13.6609 23.018 13.3535C23.7602 13.046 24.5557 12.8878 25.359 12.8878C26.1624 12.8878 26.9579 13.046 27.7001 13.3535C28.4423 13.6609 29.1167 14.1115 29.6848 14.6796C30.2529 15.2476 30.7035 15.922 31.0109 16.6643Z" fill="#FF3347"/>
</svg>
