<svg width="51" height="50" viewBox="0 0 51 50" fill="none" xmlns="http://www.w3.org/2000/svg">
<circle cx="25.75" cy="25" r="25" fill="#F1F5FF"/>
<path d="M32.7321 16.4286C39.3616 16.4286 39.9643 27.2768 39.9643 30.8928C39.9643 34.5089 39.3616 35.7143 36.9509 35.7143C34.5402 35.7143 32.1295 29.6875 30.3214 29.6875H20.6786C18.8705 29.6875 15.8438 35.7143 14.0491 35.7143C11.6384 35.7143 11.0357 34.5089 11.0357 30.8928C11.0357 27.2768 11.6384 16.4286 18.2678 16.4286H32.7321ZM19.4702 20.0446H18.8735C18.539 20.0446 18.2678 20.3158 18.2678 20.6503L18.2666 22.154H16.7642C16.4668 22.154 16.2195 22.3683 16.1682 22.6508L16.1585 22.7597V23.3563C16.1585 23.6909 16.4297 23.962 16.7642 23.962H18.2666L18.2678 25.4657C18.2678 25.7631 18.4821 26.0104 18.7647 26.0617L18.8735 26.0714H19.4702C19.8047 26.0714 20.0759 25.8002 20.0759 25.4657L20.0747 23.962H21.5796C21.8769 23.962 22.1242 23.7478 22.1755 23.4652L22.1853 23.3563V22.7597C22.1853 22.4252 21.9141 22.154 21.5796 22.154H20.0747L20.0759 20.6503C20.0759 20.353 19.8616 20.1057 19.5791 20.0544L19.4702 20.0446ZM32.1264 24.2634H31.5298C31.1953 24.2634 30.9241 24.5346 30.9241 24.8691V25.4657C30.9241 25.8002 31.1953 26.0714 31.5298 26.0714H32.1264C32.461 26.0714 32.7321 25.8002 32.7321 25.4657V24.8691C32.7321 24.5346 32.461 24.2634 32.1264 24.2634ZM30.0171 22.154H29.4204C29.0859 22.154 28.8147 22.4252 28.8147 22.7597V23.3563C28.8147 23.6909 29.0859 23.962 29.4204 23.962H30.0171C30.3516 23.962 30.6228 23.6909 30.6228 23.3563V22.7597C30.6228 22.4252 30.3516 22.154 30.0171 22.154ZM34.2358 22.154H33.6392C33.3047 22.154 33.0335 22.4252 33.0335 22.7597V23.3563C33.0335 23.6909 33.3047 23.962 33.6392 23.962H34.2358C34.5703 23.962 34.8415 23.6909 34.8415 23.3563V22.7597C34.8415 22.4252 34.5703 22.154 34.2358 22.154ZM32.1264 20.0446H31.5298C31.1953 20.0446 30.9241 20.3158 30.9241 20.6503V21.247C30.9241 21.5815 31.1953 21.8527 31.5298 21.8527H32.1264C32.461 21.8527 32.7321 21.5815 32.7321 21.247V20.6503C32.7321 20.3158 32.461 20.0446 32.1264 20.0446Z" fill="#5836EE"/>
</svg>
