<svg width="24" height="24" viewBox="0 0 24 24" fill="none" xmlns="http://www.w3.org/2000/svg">
<path d="M12 22C17.5228 22 22 17.5228 22 12C22 6.47715 17.5228 2 12 2C6.47715 2 2 6.47715 2 12C2 17.5228 6.47715 22 12 22Z" fill="#A7A3B3" stroke="white" stroke-width="2.85714"/>
<path d="M12 6.64285C11.4083 6.64285 10.9286 7.12257 10.9286 7.71428V12C10.9286 12.5917 11.4083 13.0714 12 13.0714C12.5917 13.0714 13.0714 12.5917 13.0714 12V7.71428C13.0714 7.12257 12.5917 6.64285 12 6.64285Z" fill="white"/>
<path d="M13.0714 16.2857C13.0714 16.8774 12.5917 17.3572 12 17.3572C11.4083 17.3572 10.9286 16.8774 10.9286 16.2857C10.9286 15.694 11.4083 15.2143 12 15.2143C12.5917 15.2143 13.0714 15.694 13.0714 16.2857Z" fill="white"/>
</svg>
