<svg width="38" height="39" viewBox="0 0 38 39" fill="none" xmlns="http://www.w3.org/2000/svg">
<path d="M32.0625 0.5H5.9375C2.65831 0.5 0 3.15831 0 6.4375V32.5625C0 35.8417 2.65831 38.5 5.9375 38.5H32.0625C35.3417 38.5 38 35.8417 38 32.5625V6.4375C38 3.15831 35.3417 0.5 32.0625 0.5Z" fill="#25D366"/>
<path fill-rule="evenodd" clip-rule="evenodd" d="M25.65 12.7313C23.8688 10.95 21.4937 10 19 10C13.775 10 9.5 14.275 9.5 19.5C9.5 21.1625 9.97501 22.825 10.8063 24.25L9.5 29L14.4875 27.6938C15.9125 28.4062 17.4563 28.8813 19 28.8813C24.225 28.8813 28.5 24.6062 28.5 19.3812C28.5 16.8875 27.4313 14.5125 25.65 12.7313ZM19 27.3375C17.575 27.3375 16.15 26.9813 14.9625 26.2688L14.725 26.15L11.7562 26.9812L12.5875 24.1312L12.35 23.775C11.5187 22.4688 11.1625 21.0438 11.1625 19.6188C11.1625 15.3438 14.725 11.7812 19 11.7812C21.1375 11.7812 23.0375 12.6125 24.5813 14.0375C26.125 15.5812 26.8375 17.4813 26.8375 19.6188C26.8375 23.775 23.3938 27.3375 19 27.3375ZM23.275 21.4C23.0375 21.2812 21.85 20.6875 21.6125 20.6875C21.375 20.5688 21.2562 20.5688 21.1375 20.8063C21.0187 21.0438 20.5438 21.5187 20.425 21.7562C20.3063 21.875 20.1875 21.875 19.95 21.875C19.7125 21.7563 19 21.5188 18.05 20.6875C17.3375 20.0938 16.8625 19.2625 16.7438 19.025C16.625 18.7875 16.7438 18.6687 16.8625 18.55C16.9813 18.4312 17.1 18.3125 17.2188 18.1937C17.3375 18.075 17.3375 17.9563 17.4563 17.8375C17.575 17.7188 17.4563 17.6 17.4563 17.4813C17.4563 17.3625 16.9813 16.175 16.7438 15.7C16.625 15.3438 16.3875 15.3438 16.2688 15.3438C16.15 15.3438 16.0312 15.3438 15.7937 15.3438C15.675 15.3438 15.4375 15.3438 15.2 15.5812C14.9625 15.8187 14.3688 16.4125 14.3688 17.6C14.3688 18.7875 15.2 19.8562 15.3187 20.0938C15.4375 20.2125 16.9812 22.7063 19.3562 23.6562C21.375 24.4875 21.7313 24.25 22.2063 24.25C22.6813 24.25 23.6313 23.6562 23.75 23.1813C23.9875 22.5875 23.9875 22.1125 23.8688 22.1125C23.75 21.5188 23.5125 21.5188 23.275 21.4Z" fill="white"/>
</svg>
